{
  "data": [
    {
      "id": "1d87d6b2-57fd-46d1-9b76-fa1238642a8c",
      "name": "54532",
      "erpId": "12121",
      "tenantProperties": null,
      "products": [
        "XMS",
        "BACKOFFICE",
        "MOBILIZE"
      ]
    },
    {
      "id": "333fc370-9a43-11e3-9c9f-22000aeb20d8",
      "name": "aaa",
      "erpId": "aaa",
      "tenantProperties": null,
      "products": []
    },
    {
      "id": "2cc09850-0360-11e3-aa1d-22000a1c62ae",
      "name": "aaaaaaaaaaaaaa",
      "erpId": "aaaaaaaaaaa",
      "tenantProperties": null,
      "products": []
    },
    {
      "id": "88a381da-d0e1-43f5-8567-df6d005dc584",
      "name": "aj",
      "erpId": "88888",
      "tenantProperties": null,
      "products": [
        "XMS",
        "BACKOFFICE",
        "MOBILIZE"
      ]
    },
    {
      "id": "114b4be0-dda0-11e3-8f06-22000aeb20d8",
      "name": "aj1",
      "erpId": "aj1",
      "tenantProperties": null,
      "products": []
    },
    {
      "id": "758e9311-9e6d-45d0-b419-877f6727157c",
      "name": "Ajays_DEV_Account",
      "erpId": "AJAJAJ",
      "tenantProperties": null,
      "products": [
        "XMS",
        "MOBILIZE"
      ]
    },
    {
      "id": "ae5eb9f0-8ac9-11e3-ad27-22000a49bc1d",
      "name": "alaki1",
      "erpId": "alaki1",
      "tenantProperties": null,
      "products": [
        "XMS"
      ]
    },
    {
      "id": "d37de1d0-643a-11e3-b4a3-22000a49bc1d",
      "name": "Ali-a",
      "erpId": "a1",
      "tenantProperties": null,
      "products": [
        "XMS",
        "MOBILIZE"
      ]
    },
    {
      "id": "952774e0-6698-11e3-8c90-22000aeb20d8",
      "name": "Ali-b",
      "erpId": "b-1",
      "tenantProperties": null,
      "products": [
        "XMS",
        "MOBILIZE"
      ]
    },
    {
      "id": "ec335ec0-6e77-11e3-a956-22000a49bc1d",
      "name": "Ali-c",
      "erpId": "CCCC",
      "tenantProperties": null,
      "products": [
        "XMS",
        "MOBILIZE"
      ]
    },
    {
      "id": "69a8c600-7252-11e3-a956-22000a49bc1d",
      "name": "Ali-d",
      "erpId": "DDDD",
      "tenantProperties": null,
      "products": [
        "XMS",
        "MOBILIZE"
      ]
    },
    {
      "id": "59e6f8a6-9ce9-4f86-9f38-3106fa9b70c2",
      "name": "AncaBTenant",
      "erpId": "ERP-ANCAB",
      "tenantProperties": null,
      "products": [
        "XMS",
        "BACKOFFICE",
        "MOBILIZE"
      ]
    },
    {
      "id": "eb3b49de-558c-47e8-954f-41fbd943f0a9",
      "name": "AncaBTenant-2",
      "erpId": "ERP-anca-2",
      "tenantProperties": null,
      "products": [
        "XMS",
        "BACKOFFICE",
        "MOBILIZE"
      ]
    },
    {
      "id": "50e7dfc0-6b9f-4c41-b0a0-d2f56c21faca",
      "name": "Anca L",
      "erpId": "test Customer",
      "tenantProperties": null,
      "products": []
    },
    {
      "id": "e9fb6740-dda0-11e3-916c-22000a49bc1d",
      "name": "auto0",
      "erpId": "auto0",
      "tenantProperties": null,
      "products": []
    },
    {
      "id": "d4af3aa0-4274-11e3-8736-22000aeb20d8",
      "name": "Automation-1028-1",
      "erpId": "Automation-1028-1",
      "tenantProperties": {
        "defaultProfile": null,
        "tenantMaintenanceWindow": null
      },
      "products": [
        "XMS",
        "BACKOFFICE",
        "MOBILIZE"
      ]
    },
    {
      "id": "8de21450-1716-11e3-9cfc-22000ab68970",
      "name": "Automation XMS",
      "erpId": "Automation XMS",
      "tenantProperties": {
        "defaultProfile": null,
        "tenantMaintenanceWindow": null
      },
      "products": [
        "XMS",
        "MOBILIZE"
      ]
    },
    {
      "id": "49518cd0-dad4-11e3-b70b-22000a49bc1d",
      "name": "bobcloud-one",
      "erpId": "RL-CLOUD-2",
      "tenantProperties": null,
      "products": [
        "XMS",
        "MOBILIZE"
      ]
    },
    {
      "id": "256720c0-da19-11e3-9fd2-22000aeb20d8",
      "name": "BobL-cloud-1",
      "erpId": "RL-CLOUD-1",
      "tenantProperties": null,
      "products": [
        "XMS",
        "BACKOFFICE",
        "MOBILIZE"
      ]
    },
    {
      "id": "649acb20-4c8e-11e3-bb0b-22000aeb20d8",
      "name": "Chris tenant",
      "erpId": "Chris Tenant-Array",
      "tenantProperties": null,
      "products": [
        "XMS"
      ]
    },
    {
      "id": "539b12e0-60f6-11e3-95fc-22000a49bc1d",
      "name": "Contractor",
      "erpId": "SQA Contractor",
      "tenantProperties": null,
      "products": [
        "XMS"
      ]
    },
    {
      "id": "bb01da00-2f40-11e3-8b81-22000a9763bb",
      "name": "Customer 1007",
      "erpId": "ERP-1007",
      "tenantProperties": null,
      "products": []
    },
    {
      "id": "827619c0-e8ec-11e2-b63d-1231391431fa",
      "name": "Daryl Tenant 01",
      "erpId": "ERP-DARYL452",
      "tenantProperties": {
        "defaultProfile": null,
        "tenantMaintenanceWindow": null
      },
      "products": [
        "XMS",
        "BACKOFFICE",
        "MOBILIZE"
      ]
    },
    {
      "id": "33f17100-0476-11e3-aa1d-22000a1c62ae",
      "name": "David Tenant",
      "erpId": "111",
      "tenantProperties": null,
      "products": [
        "XMS",
        "BACKOFFICE",
        "MOBILIZE"
      ]
    },
    {
      "id": "cbf38c10-e7e1-11e2-a634-1231391431fa",
      "name": "deleted cbf38c10-e7e1-11e2-a634-1231391431fa",
      "erpId": "deleted-cbf38c10-e7e1-11e2-a634-1231391431fa",
      "tenantProperties": null,
      "products": [
        "MOBILIZE"
      ]
    },
    {
      "id": "20b4e1c0-1183-11e3-b427-1231391431fa",
      "name": "dfg",
      "erpId": "dfg",
      "tenantProperties": null,
      "products": []
    },
    {
      "id": "cee52a30-f639-11e2-afb6-1231391431fa",
      "name": "dsnfjkasgef6",
      "erpId": "2457493857938476",
      "tenantProperties": null,
      "products": []
    },
    {
      "id": "ea3ac070-0fab-11e3-a36f-1231391431fa",
      "name": "dummy",
      "erpId": "dummy",
      "tenantProperties": null,
      "products": []
    },
    {
      "id": "70b208cc-247c-4166-9298-c2c2eaecb515",
      "name": "EGA2-Test",
      "erpId": "ERP-EGA2",
      "tenantProperties": {
        "defaultProfile": null,
        "tenantMaintenanceWindow": null
      },
      "products": [
        "XMS",
        "BACKOFFICE",
        "MOBILIZE"
      ]
    },
    {
      "id": "20a37f83-a2ad-4558-8310-81667c7c726e",
      "name": "EGA3-Test",
      "erpId": "ERP-EGA3",
      "tenantProperties": {
        "defaultProfile": null,
        "tenantMaintenanceWindow": null
      },
      "products": [
        "XMS",
        "BACKOFFICE",
        "MOBILIZE"
      ]
    },
    {
      "id": "472d1f50-0532-11e3-9d7b-22000a1c62ae",
      "name": "Jack Horner",
      "erpId": "JACK",
      "tenantProperties": null,
      "products": [
        "XMS",
        "MOBILIZE"
      ]
    },
    {
      "id": "7b21c1c4-9bf7-4672-af63-7238b8d9b26d",
      "name": "Javier-DEV_Account1",
      "erpId": "12345",
      "tenantProperties": null,
      "products": [
        "MOBILIZE"
      ]
    },
    {
      "id": "95de6b30-645b-11e3-b0d3-22000aeb20d8",
      "name": "John Doe Tenant",
      "erpId": "ERP-JOHN-DOE",
      "tenantProperties": null,
      "products": [
        "XMS",
        "BACKOFFICE",
        "MOBILIZE"
      ]
    },
    {
      "id": "15df1d90-14fa-11e3-bf26-1231391431fa",
      "name": "Jose1",
      "erpId": "ERPID134566",
      "tenantProperties": null,
      "products": [
        "MOBILIZE"
      ]
    },
    {
      "id": "379dfb90-3dcc-11e3-8bbc-22000a49bc1d",
      "name": "Jose-NG1",
      "erpId": "JOSENG1",
      "tenantProperties": null,
      "products": [
        "XMS",
        "BACKOFFICE",
        "MOBILIZE"
      ]
    },
    {
      "id": "b34be810-418c-11e3-850a-22000aeb20d8",
      "name": "Jose-NG2-10-30-2013",
      "erpId": "JOSENG2",
      "tenantProperties": null,
      "products": [
        "MOBILIZE"
      ]
    },
    {
      "id": "01351b50-4327-11e3-8cde-22000a49bc1d",
      "name": "Jose-NG3-10-01-2013-11AM",
      "erpId": "JOSENG3",
      "tenantProperties": null,
      "products": [
        "XMS",
        "MOBILIZE"
      ]
    },
    {
      "id": "7dc8cc90-61c5-11e3-98cc-22000aeb20d8",
      "name": "Karyn Ulriksen",
      "erpId": "Karyn",
      "tenantProperties": null,
      "products": [
        "MOBILIZE"
      ]
    },
    {
      "id": "7096ce85-17f6-492e-9b16-da8eaedc7818",
      "name": "Kevin-DEV_Account",
      "erpId": "KDKDKD",
      "tenantProperties": null,
      "products": [
        "XMS",
        "MOBILIZE"
      ]
    },
    {
      "id": "9f4b1c10-4712-11e3-835c-22000a49bc1d",
      "name": "Macadamian Dev Tenant",
      "erpId": "ERP-Mac-Dev",
      "tenantProperties": {
        "defaultProfile": null,
        "tenantMaintenanceWindow": null
      },
      "products": [
        "XMS",
        "BACKOFFICE",
        "MOBILIZE"
      ]
    },
    {
      "id": "79b50403-cc12-40e7-ba03-f1f1a5af0a6f",
      "name": "Macadamian-EGA1",
      "erpId": "ERP-EGA1",
      "tenantProperties": {
        "defaultProfile": null,
        "tenantMaintenanceWindow": null
      },
      "products": [
        "XMS",
        "BACKOFFICE",
        "MOBILIZE"
      ]
    },
    {
      "id": "7a4dc300-e3f7-11e2-9067-1231391431fa",
      "name": "Mac Test 5-edit",
      "erpId": "ERP-Mac-5-abc",
      "tenantProperties": null,
      "products": [
        "XMS",
        "BACKOFFICE",
        "MOBILIZE"
      ]
    },
    {
      "id": "fa581140-0f76-11e3-b1dd-22000a1c62ae",
      "name": "Pete-Tenant",
      "erpId": "pete",
      "tenantProperties": null,
      "products": [
        "XMS"
      ]
    },
    {
      "id": "9951c941-43f1-4458-89d4-3fdc33a7d739",
      "name": "PLM-JL-1",
      "erpId": "PLM-JM-1",
      "tenantProperties": null,
      "products": [
        "XMS",
        "MOBILIZE"
      ]
    },
    {
      "id": "a1913666-051b-47f7-83c2-478da58b2813",
      "name": "PLM-JS-1",
      "erpId": "PLM-JS-1",
      "tenantProperties": null,
      "products": [
        "MOBILIZE"
      ]
    },
    {
      "id": "41f97d40-8952-11e3-9896-22000aeb20d8",
      "name": "Product-Manager1",
      "erpId": "PM-JASON-1",
      "tenantProperties": null,
      "products": [
        "XMS",
        "BACKOFFICE",
        "MOBILIZE"
      ]
    },
    {
      "id": "30df3165-776c-4ac1-aae4-ec5bf3f2543a",
      "name": "PRs-DEV_Account",
      "erpId": "PRPRPR",
      "tenantProperties": null,
      "products": [
        "XMS",
        "MOBILIZE"
      ]
    },
    {
      "id": "40dad3e0-f312-11e2-883a-1231391431fa",
      "name": "QA Inc",
      "erpId": "753159",
      "tenantProperties": null,
      "products": []
    },
    {
      "id": "0fca16f0-7ca4-11e3-b16f-22000aeb20d8",
      "name": "Scoping 1",
      "erpId": "SQA Automation - Scoping 1",
      "tenantProperties": null,
      "products": [
        "XMS",
        "BACKOFFICE"
      ]
    },
    {
      "id": "36714300-7ca4-11e3-b16f-22000aeb20d8",
      "name": "Scoping 10",
      "erpId": "SQA Automation - Scoping 10",
      "tenantProperties": null,
      "products": [
        "XMS",
        "BACKOFFICE"
      ]
    }
  ],
  "paging": {
    "previous": "",
    "next": "http://login-dev.cloud.xirrus.com/api/v2/tenants.json/?count=50&sortBy=name&orderAsc=true&start=50",
    "start": 0,
    "count": 50,
    "actualCount": 50,
    "total": 180
  }
}